…
```r
# most popular
tw %>% 
  group_by(PROFILE) %>%
  summarise(FOLLOW = mean(FOLLOWERS_COUNT)) %>%
  arrange(desc(FOLLOW)) %>% 
  head(40) 
```

```
## # A tibble: 40 x 2
##    PROFILE           FOLLOW
##    <chr>              <dbl>
##  1 khloekardashian 29973623
##  2 pabllovittar     3072344
##  3 KidCudi          2817839
##  4 Nasty_CSA        2010115
##  5 erigganewmoney   1822182
##  6 phamswing        1559883
##  7 PoemPorns        1323818
##  8 MarioMandzukic9  1037953
##  9 hulu             1027891
## 10 estopaoficial    1011572
## # ... with 30 more rows
```

```r
# most influential
tw %>% 
  group_by(PROFILE) %>%
  summarise(REACH = sum(REACH)) %>%
  arrange(desc(REACH))  %>% 
  head(40)
```

```
## # A tibble: 40 x 2
##    PROFILE           REACH
##    <chr>             <int>
##  1 DNEVNIKhr       7391289
##  2 24sata_HR       5851797
##  3 vecernji_list   4009695
##  4 VladaRH         2751524
##  5 hrtvijesti      2344931
##  6 dreamjeons      1687520
##  7 khloekardashian 1511558
##  8 triviamor        994551
##  9 taeteland        965578
## 10 sincerelyart     891840
## # ... with 30 more rows
```

```r
# most influential II
tw %>% 
  group_by(PROFILE) %>%
  summarise(INTERACTIONS = sum(INTERACTIONS)) %>%
  arrange(desc(INTERACTIONS)) %>% 
  head(40)
```

```
## # A tibble: 40 x 2
##    PROFILE         INTERACTIONS
##    <chr>                  <int>
##  1 dreamjeons            126368
##  2 sincerelyart           75775
##  3 taeteland              72793
##  4 triviamor              71201
##  5 hh_jmxx                63520
##  6 maybeeevirgo           49328
##  7 rainemescudi           37138
##  8 pabllovittar           36018
##  9 Skrille75951826        33486
## 10 convomf                30323
## # ... with 30 more rows
```

```r
# most appreciated
tw %>% 
  group_by(PROFILE) %>%
  summarise(FAVORITE = sum(FAVORITE_COUNT)) %>%
  arrange(desc(FAVORITE)) %>% 
  head(40)
```

```
## # A tibble: 40 x 2
##    PROFILE         FAVORITE
##    <chr>              <int>
##  1 dreamjeons        106071
##  2 sincerelyart       69363
##  3 taeteland          62958
##  4 triviamor          57078
##  5 hh_jmxx            54063
##  6 maybeeevirgo       37475
##  7 rainemescudi       35518
##  8 pabllovittar       33209
##  9 Skrille75951826    28701
## 10 convomf            27974
## # ... with 30 more rows
```

```r
# most appreciated
tw %>% 
  group_by(PROFILE) %>%
  summarise(RETWEET = sum(RETWEET_COUNT)) %>%
  arrange(desc(RETWEET)) %>% 
  head(40)
```

```
## # A tibble: 40 x 2
##    PROFILE         RETWEET
##    <chr>             <int>
##  1 dreamjeons        20297
##  2 triviamor         14123
##  3 maybeeevirgo      11853
##  4 taeteland          9835
##  5 hh_jmxx            9457
##  6 sincerelyart       6412
##  7 Skrille75951826    4785
##  8 HRJVISUAL          4121
##  9 stefondiggs        3457
## 10 pabllovittar       2809
## # ... with 30 more rows
```
…
tw[FROM %in% CRO_TW,] -> CTW

CTW %>%
  mutate(PROFILE = gsub("^.*\\.com/([^/]+).*", "\\1", URL)) -> CTW

# most popular
CTW %>% 
  group_by(PROFILE) %>%
  summarise(FOLLOW = mean(FOLLOWERS_COUNT)) %>%
  arrange(desc(FOLLOW))  %>% 
  head(100)
```

```
## # A tibble: 100 x 2
##    PROFILE          FOLLOW
##    <chr>             <dbl>
##  1 convomf         770027 
##  2 convomfs        387564.
##  3 BTS_twt_TAEHYNG 333488 
##  4 baIenciagajk    244914 
##  5 DNEVNIKhr       243775.
##  6 HNS_CFF         240832.
##  7 24sata_HR       199798.
##  8 VladaRH         191339.
##  9 vecernji_list   175780.
## 10 waifuumia       170063 
## # ... with 90 more rows
```

```r
# most influential
CTW %>% 
  group_by(PROFILE) %>%
  summarise(REACH = sum(REACH)) %>%
  arrange(desc(REACH))  %>% 
  head(40)
```

```
## # A tibble: 40 x 2
##    PROFILE         REACH
##    <chr>           <int>
##  1 DNEVNIKhr     7391289
##  2 24sata_HR     5851797
##  3 vecernji_list 4009695
##  4 VladaRH       2751524
##  5 hrtvijesti    2344931
##  6 HNS_CFF        642727
##  7 convomf        621324
##  8 N1infoZG       426762
##  9 novilisthr     424521
## 10 poligrafnews   400520
## # ... with 30 more rows
```

```r
# most influential II
CTW %>% 
  group_by(PROFILE) %>%
  summarise(INTERACTIONS = sum(INTERACTIONS)) %>%
  arrange(desc(INTERACTIONS))  %>% 
  head(40)
```

```
## # A tibble: 40 x 2
##    PROFILE         INTERACTIONS
##    <chr>                  <int>
##  1 convomf                30323
##  2 HRJVISUAL              17177
##  3 waifuumia              10750
##  4 madeoflavenderr         9496
##  5 branchica               9275
##  6 AndrejPlenkovic         9154
##  7 lisasuprmcy             9133
##  8 crying2frank            7578
##  9 jeonghanszone           7233
## 10 MejMin                  6643
## # ... with 30 more rows
```

```r
# most appreciated
CTW %>% 
  group_by(PROFILE) %>%
  summarise(FAVORITE = sum(FAVORITE_COUNT)) %>%
  arrange(desc(FAVORITE)) %>% 
  head(40)
```

```
## # A tibble: 40 x 2
##    PROFILE         FAVORITE
##    <chr>              <int>
##  1 convomf            27974
##  2 HRJVISUAL          13056
##  3 waifuumia          10318
##  4 branchica           8671
##  5 AndrejPlenkovic     8122
##  6 madeoflavenderr     8062
##  7 lisasuprmcy         7442
##  8 konjos              6348
##  9 MejMin              6330
## 10 crying2frank        6047
## # ... with 30 more rows
```

```r
# most appreciated
CTW %>% 
  group_by(PROFILE) %>%
  summarise(RETWEET = sum(RETWEET_COUNT)) %>%
  arrange(desc(RETWEET))  %>% 
  head(40)
```

```
## # A tibble: 40 x 2
##    PROFILE         RETWEET
##    <chr>             <int>
##  1 HRJVISUAL          4121
##  2 SneanaKrstovic1    2552
##  3 negde_tamo         2545
##  4 markovic_dana      2430
##  5 convomf            2349
##  6 lisasuprmcy        1691
##  7 crying2frank       1531
##  8 jeonghanszone      1517
##  9 madeoflavenderr    1434
## 10 Nevenaa84          1426
## # ... with 30 more rows
```
…
