…
#### DESCRIPTIVE STATS


```r
PI %>%
  select(videoTitle, durationSec, viewCount) %>% 
  arrange(desc(viewCount))
```

```
## # A tibble: 6,322 x 3
##    videoTitle                                              durationSec viewCount
##    <chr>                                                         <dbl>     <dbl>
##  1 "Vaso Bakočević - \"Bilo me strah u svlačionici, Kores~         321   1743162
##  2 "Mirko CroCop Filipovic o najvećoj prevari u (on bigge~         223   1613773
##  3 "Vaso Bakočević - \"Koreshkov je macola! Nadao sam se ~         380   1184041
##  4 "Vaso Bakočević otkrio koliko jako udara Roberto Soldi~         256   1078598
##  5 "Podcast Inkubator #69 - Dea Redžić i Mirko Cro Cop Fi~        3127   1052903
##  6 "Podcast Inkubator #276 - Marko i Mirko Cro Cop Filipo~        1068   1032842
##  7 "Podcast Inkubator #178 - Marko i Vaso Bakočević"              2394    854907
##  8 "Satoshi Ishii - \"Di si bio '91?"                               71    854672
##  9 "Mirko Cro Cop o sparingu sa Vladimirom Kličkom - Cro ~         260    842420
## 10 "Podcast Inkubator #261 - Marko, Vaso Bakočević i Duša~        3151    819179
## # ... with 6,312 more rows
```

```r
PI %>%
  select(videoTitle, durationSec, likeCount) %>% 
  arrange(desc(likeCount))
```

```
## # A tibble: 6,322 x 3
##    videoTitle                                              durationSec likeCount
##    <chr>                                                         <dbl>     <dbl>
##  1 "Vaso Bakočević - \"Bilo me strah u svlačionici, Kores~         321     22984
##  2 "Podcast Inkubator #276 - Marko i Mirko Cro Cop Filipo~        1068     18571
##  3 "Satoshi Ishii - \"Di si bio '91?"                               71     17620
##  4 "Vaso Bakočević - \"Koreshkov je macola! Nadao sam se ~         380     14349
##  5 "Mirko CroCop Filipovic o najvećoj prevari u (on bigge~         223     13220
##  6 "Satoshi Ishii - \"Učim hrvatski..teško je,puno zadaća~         164     13026
##  7 "Cro Cop ispričao priču o prvom pijanstvu - \"U meni l~         874     12753
##  8 "Erko Jun SMRVIO krušku - DOSLOVNO!!!"                           91     12404
##  9 "Podcast Inkubator #261 - Marko, Vaso Bakočević i Duša~        3151     12402
## 10 "Vaso Bakočević - \"Petrak, slušaš li ti uopće Džakića~         207     12262
## # ... with 6,312 more rows
```

```r
PI %>%
  select(videoTitle, durationSec, dislikeCount) %>% 
  arrange(desc(dislikeCount))
```

```
## # A tibble: 6,322 x 3
##    videoTitle                                           durationSec dislikeCount
##    <chr>                                                      <dbl> <lgl>       
##  1 "Pinta i Duspara započinju žestoku raspravu - \"Ja ~         620 NA          
##  2 "Pinta proziva Dusparu za igranje pucačina - Tamo u~         421 NA          
##  3 "Podcast Inkubator #781 Q&A 556 - Alen Babić"               2996 NA          
##  4 "Podcast Inkubator #781 - Marko i Alen Babić"               2061 NA          
##  5 "Elvis Duspara - \"Volim Miroljuba Petrovića bez ob~         324 NA          
##  6 "Duspara, Pinta i MPO raspravljaju o psihodelicima ~         366 NA          
##  7 "Duspara i Pinta žestoki, MPO i Rale umiru - \"Osca~         492 NA          
##  8 "Domagoj Pintarić - \"Stalno mi stavljaš stvari u u~         462 NA          
##  9 "Iza Kulisa Podcast Inkubatora - Krešo Bengalka"             492 NA          
## 10 "Podcast Mysterium #4 - Reptili | Balkanski vampiri~        1526 NA          
## # ... with 6,312 more rows
```

```r
PI %>%
  select(videoTitle, durationSec, commentCount) %>% 
  arrange(desc(commentCount))
```

```
## # A tibble: 6,322 x 3
##    videoTitle                                           durationSec commentCount
##    <chr>                                                      <dbl>        <dbl>
##  1 "Marko Francišković o svom prelasku na Islam"                492         1846
##  2 "Dušan Džakić - \"AIKIDO je PREVARA\""                       239         1592
##  3 "Podcast Inkubator #587 - Ratko i Zdravko Mamić 1.d~        3576         1572
##  4 "Podcast Inkubator #276 - Marko i Mirko Cro Cop Fil~        1068         1387
##  5 "Podcast Inkubator #419 - Marko i Cro Cop"                  3295         1311
##  6 "Podcast Inkubator #325 - Fil Tilen, Baka Prase i C~         465         1082
##  7 "Podcast Inkubator #587 - Ratko i Zdravko Mamić 2.d~         615         1056
##  8 "Podcast Inkubator #428 - Ratko i Ante Prkačin"             2508         1003
##  9 "Podcast Inkubator #69 - Dea Redžić i Mirko Cro Cop~        3127          963
## 10 "Podcast Inkubator #411 - Ratko i Miroljub Petrović"        2673          912
## # ... with 6,312 more rows
```

```r
PI %>%
  select(videoTitle, durationSec) %>% 
  arrange(desc(durationSec))
```

```
## # A tibble: 6,322 x 2
##    videoTitle                                                        durationSec
##    <chr>                                                                   <dbl>
##  1 "Podcast Inkubator #260 - Ratko i Adrian Kezele"                         3599
##  2 "Podcast Inkubator #644 - Marko i Mirsad Bektić"                         3587
##  3 "Podcast Inkubator #433 - Marko i Hrvoje Sep"                            3585
##  4 "Podcast Inkubator #405 - Fil Tilen i Miloš Koprivica"                   3584
##  5 "Podcast Inkubator #129 - Marko i Adriana Vuković"                       3584
##  6 "Podcast Inkubator #358 - Marko i Miša Bačulov"                          3583
##  7 "Podcast Inkubator #271 - Marko i Milan \"Tank\" Krušič"                 3578
##  8 "Podcast Inkubator #729 Q&A 509 - Matej Truhan | ANALIZA Ngannou~        3577
##  9 "Podcast Inkubator #587 - Ratko i Zdravko Mamić 1.dio"                   3576
## 10 "A1 Nogometni Podcast #65 - Vela, Globan, Los i Desni ( Superlig~        3575
## # ... with 6,312 more rows
```


#### COMMENTS 


```r
# check most commented videos
PI %>%
  select(videoTitle, videoId, durationSec, commentCount) %>% 
  arrange(desc(commentCount))
```

```
## # A tibble: 6,322 x 4
##    videoTitle                                 videoId   durationSec commentCount
##    <chr>                                      <chr>           <dbl>        <dbl>
##  1 "Marko Francišković o svom prelasku na Is~ EbXTwqO4~         492         1846
##  2 "Dušan Džakić - \"AIKIDO je PREVARA\""     veJVYMz_~         239         1592
##  3 "Podcast Inkubator #587 - Ratko i Zdravko~ E3bfQiPW~        3576         1572
##  4 "Podcast Inkubator #276 - Marko i Mirko C~ JGNTIL_E~        1068         1387
##  5 "Podcast Inkubator #419 - Marko i Cro Cop" w7kXlYex~        3295         1311
##  6 "Podcast Inkubator #325 - Fil Tilen, Baka~ 20V9uzBv~         465         1082
##  7 "Podcast Inkubator #587 - Ratko i Zdravko~ hEx86LMr~         615         1056
##  8 "Podcast Inkubator #428 - Ratko i Ante Pr~ c1MlD3s4~        2508         1003
##  9 "Podcast Inkubator #69 - Dea Redžić i Mir~ BBcL4D7Q~        3127          963
## 10 "Podcast Inkubator #411 - Ratko i Mirolju~ NM_ilgff~        2673          912
## # ... with 6,312 more rows
```
…
```r
COMMENTS %>%
  select(authorName,text,likeCount) %>%
  arrange(desc(likeCount))
```

```
## # A tibble: 1,518 x 3
##    authorName       text                                               likeCount
##    <chr>            <chr>                                                  <dbl>
##  1 Legolas          "Voditelj je pajser neviđeni, neozbiljan, sprda s~       329
##  2 bob rock         "Pustite covjeka da bude pripadnik bilo koje vjer~       255
##  3 Safet Selmanovic "Dobronamdošao Brate da te Allah s.w.t da te nagr~       157
##  4 DEVET Heroja     "Da te Allah ucvrsti na pravom putu !<br>Amin ."         132
##  5 CAPITAL 25       "Ellhamdulilah"                                          121
##  6 happy papaya     "Svaka čast, bitno da si dobar čovjek i sretan!"         110
##  7 Musli Selmani    "Ovaj voditelj je neozbiljan Covjek."                     79
##  8 Korisnik 365     "Ako je Marko našao svoj duhovni mir u Islamu i s~        74
##  9 Mici Epica       "Stvarno ratomire Ratko ...čovik ti ide objasnit ~        71
## 10 Anel KALESIJA    "Voli svoje,poštuj tudje<br>Vi u komntarima vodit~        71
## # ... with 1,508 more rows
```
…
bigrams_united <- COMMENTS_bigram_tidy %>%
  unite(bigram, word1, word2, sep = " ") %>%
  filter(., !grepl("NA",bigram))
#bigrams_united
bigrams_united %>% 
  count(authorName,bigram,sort = T) -> topicBigram

bigrams_united %>%
  count(bigram, sort = T) %>%
  head(35) 
```

```
## # A tibble: 35 x 2
##    bigram            n
##    <chr>         <int>
##  1 br br            82
##  2 željko pomper    31
##  3 isus krist       28
##  4 kenan džafić     28
##  5 duh sveti        25
##  6 sta ce           24
##  7 zlatko jokic     23
##  8 isus bog         22
##  9 svako bira       22
## 10 knjiga tad       21
## # ... with 25 more rows
```
…
