…
fb %>% 
  group_by(FROM) %>%
  mutate(ACTIVITY = n(),
         REACH = sum(REACH),
         EFFECT = REACH/ACTIVITY) %>%
  select(FROM,ACTIVITY,REACH,EFFECT) %>%
  filter(ACTIVITY>100) %>%
  arrange(desc(EFFECT)) %>%
  unique()
```

```
## # A tibble: 587 x 4
## # Groups:   FROM [587]
##    FROM                     ACTIVITY        REACH     EFFECT
##    <chr>                       <int>        <dbl>      <dbl>
##  1 Samsung                       193 291401734571 1509853547
##  2 Huawei Mobile                 110  34506895830  313699053
##  3 LG Global                     107  24808255164  231852852
##  4 24sata                       1797 314816647437  175190121
##  5 Index.hr                     1966 290586004234  147805699
##  6 ASUS                          117  17056880334  145785302
##  7 Avon                          143  19333370056  135198392
##  8 Jutarnji                     2258 268248144258  118799001
##  9 FC Barcelona Balkan fans     1081 123874697890  114592690
## 10 DNEVNIK.hr                   1926 193742840250  100593375
## # ... with 577 more rows
```
…
fb %>% 
  group_by(FROM) %>%
  mutate(LIKE = sum(LIKE_COUNT),
         ACTIVITY = n(),
         EFFECT = LIKE/ACTIVITY) %>%
  select(FROM,ACTIVITY,LIKE,EFFECT) %>%
  filter(ACTIVITY>100) %>%
  arrange(desc(EFFECT)) %>%
  unique()
```

```
## # A tibble: 587 x 4
## # Groups:   FROM [587]
##    FROM                     ACTIVITY   LIKE EFFECT
##    <chr>                       <int>  <dbl>  <dbl>
##  1 HNK Hajduk Split              199 409141  2056.
##  2 Nogometne Ikone               160 290429  1815.
##  3 Hajdučke vijesti              368 546636  1485.
##  4 Nikola Grmoja                 150 218222  1455.
##  5 Velimir Bujanec               176 242315  1377.
##  6 GNK Dinamo Zagreb             252 280278  1112.
##  7 Vragolasti Tenis              117 123838  1058.
##  8 Hrvatski nogometni savez      191 190074   995.
##  9 AM Sport                      176 157573   895.
## 10 Nogometni transferi           160 139686   873.
## # ... with 577 more rows
```
…
fb %>% 
  group_by(FROM) %>%
  mutate(COMMENT = sum(COMMENT_COUNT),
         ACTIVITY = n(),
         ENGAGE = COMMENT/ACTIVITY) %>%
  select(FROM,ACTIVITY,COMMENT,ENGAGE) %>%
  filter(ACTIVITY>100) %>%
  arrange(desc(ENGAGE)) %>%
  unique()
```

```
## # A tibble: 587 x 4
## # Groups:   FROM [587]
##    FROM            ACTIVITY COMMENT ENGAGE
##    <chr>              <int>   <dbl>  <dbl>
##  1 Kragrlica            111   66230   597.
##  2 Nokaj Zlatarna       109   39432   362.
##  3 Elegant.hr           219   59837   273.
##  4 FASHION.HR           173   39556   229.
##  5 Lipadona             172   31126   181.
##  6 Nikola Grmoja        150   26696   178.
##  7 Velimir Bujanec      176   30561   174.
##  8 Index.hr            1966  266205   135.
##  9 24sata              1797  241766   135.
## 10 Net.hr              1484  150990   102.
## # ... with 577 more rows
```
…
fb %>% 
  group_by(FROM) %>%
  mutate(SHARE = sum(SHARE_COUNT),
         ACTIVITY = n(),
         DISPERSION = SHARE/ACTIVITY) %>%
  select(FROM,ACTIVITY,SHARE,DISPERSION) %>%
  filter(ACTIVITY>100) %>%
  arrange(desc(DISPERSION)) %>%
  unique()
```

```
## # A tibble: 587 x 4
## # Groups:   FROM [587]
##    FROM                                                ACTIVITY SHARE DISPERSION
##    <chr>                                                  <int> <dbl>      <dbl>
##  1 "Nokaj Zlatarna"                                         109 27734      254. 
##  2 "Velimir Bujanec"                                        176 21310      121. 
##  3 "Lipadona"                                               172 18283      106. 
##  4 "Čitaj knjigu"                                           672 55645       82.8
##  5 "Nikola Grmoja"                                          150 10891       72.6
##  6 "Azil za pse \"Društvo za zaštitu životinja Rijeka~      490 29560       60.3
##  7 "Udruga za dobrobit i zaštitu životinja Indigo"          870 41864       48.1
##  8 "PROVJERENO"                                             154  7334       47.6
##  9 "VJERA"                                                  134  6066       45.3
## 10 "Prijatelji životinja"                                   423 18500       43.7
## # ... with 577 more rows
```
…
# letters by influencer

fb %>% 
  group_by(FROM) %>%
  mutate(LETTERS = sum(SHARE_COUNT),
         ACTIVITY = n(),
         EFFORT = LETTERS/ACTIVITY) %>%
  select(FROM,ACTIVITY,LETTERS,EFFORT) %>%
  filter(ACTIVITY>100) %>%
  arrange(desc(EFFORT)) %>%
  unique()
```

```
## # A tibble: 587 x 4
## # Groups:   FROM [587]
##    FROM                                                  ACTIVITY LETTERS EFFORT
##    <chr>                                                    <int>   <dbl>  <dbl>
##  1 "Nokaj Zlatarna"                                           109   27734  254. 
##  2 "Velimir Bujanec"                                          176   21310  121. 
##  3 "Lipadona"                                                 172   18283  106. 
##  4 "Čitaj knjigu"                                             672   55645   82.8
##  5 "Nikola Grmoja"                                            150   10891   72.6
##  6 "Azil za pse \"Društvo za zaštitu životinja Rijeka\""      490   29560   60.3
##  7 "Udruga za dobrobit i zaštitu životinja Indigo"            870   41864   48.1
##  8 "PROVJERENO"                                               154    7334   47.6
##  9 "VJERA"                                                    134    6066   45.3
## 10 "Prijatelji životinja"                                     423   18500   43.7
## # ... with 577 more rows
```
…
```
## # A tibble: 2,472 x 2
##    FROM                negativnostIndex
##    <chr>                          <dbl>
##  1 <U+0413><U+0420><U+041E><U+0411><U+0410><U+0420><U+0418> 1970                    25  
##  2 Kobieta.Fakt                    25  
##  3 Čuvari Snova                    20  
##  4 <U+0417><U+0432><U+0435><U+0437><U+0434><U+0438><U+043D><U+0435> <U+0412><U+0435><U+0441><U+0442><U+0438>                  16.7
##  5 Dnevna Doza Novosti             15.4
##  6 BSD Forever                     14.3
##  7 Fashion room.rs                 14.3
##  8 mudreMISLI.net                  14.3
##  9 PINK DAY                        14.3
## 10 Social Wizard                   11.1
## # ... with 2,462 more rows
```
```r
## Najpozitivniji portali
CroSentilex_Gold_poz <- CroSentilex_Gold %>% filter(sentiment == 2)
fb_tokenTidy %>% 
  semi_join(CroSentilex_Gold_poz, by= "word") %>%
  group_by(FROM) %>% 
  summarise(pozWords = n()) %>%
  left_join(wCount, by = "FROM") %>%
  mutate(pozitivnostIndex = (pozWords/word)*100) %>%
  arrange(desc(pozitivnostIndex)) %>%
  select(FROM, pozitivnostIndex)
```

```
## # A tibble: 4,586 x 2
##    FROM                                      pozitivnostIndex
##    <chr>                                                <dbl>
##  1 posteljina.hr                                         66.7
##  2 Vjeko Begovic Photography                             66.7
##  3 Besty                                                 50  
##  4 Ob-Neob sa Brakusom i Banjcem                         50  
##  5 Blanka Vlasic Official Page                           40  
##  6 Srećko Puntarić - Felix                               40  
##  7 tamburaški sastav GARAVUŠE                            40  
##  8 <U+041A><U+0430><U+043C><U+0438><U+043E><U+043D><U+0438> <U+0420><U+0435><U+043F><U+0443><U+0431><U+043B><U+0438><U+043A><U+0430> <U+0421><U+0440><U+043F><U+0441><U+043A><U+0430> - Kamioni Srpska             33.3
##  9 Laburisti Trnje                                       33.3
## 10 Miss Bosne i Hercegovine za Miss Svijeta              33.3
## # ... with 4,576 more rows
```
…
