Learning Social Media Analytics
…
---

### Dealing with missingness

- Digging a little deeper into these variables, we might notice that Garage_Cars and Garage_Area contain the value 0 whenever the other Garage_xx variables have missing values (i.e. a value of NA). 

```r
AmesHousing::ames_raw %>% 
  filter(is.na(`Garage Type`)) %>% 
  select(`Garage Type`, `Garage Cars`, `Garage Area`)
```

```
## # A tibble: 157 x 3
##    `Garage Type` `Garage Cars` `Garage Area`
##    <chr>                 <int>         <int>
##  1 <NA>                      0             0
##  2 <NA>                      0             0
##  3 <NA>                      0             0
##  4 <NA>                      0             0
##  5 <NA>                      0             0
##  6 <NA>                      0             0
##  7 <NA>                      0             0
##  8 <NA>                      0             0
##  9 <NA>                      0             0
## 10 <NA>                      0             0
## # ... with 147 more rows
```
…
---

### Categorical feature engineering

- Sometimes features will contain levels that have very few observations. For example, there are 28 unique neighborhoods represented in the Ames housing data but several of them only have a few observations.

```r
count(ames_train, Neighborhood) %>% arrange(n)
```

```
## # A tibble: 28 x 2
##    Neighborhood            n
##    <fct>               <int>
##  1 Landmark                1
##  2 Green_Hills             2
##  3 Greens                  3
##  4 Blueste                 8
##  5 Veenker                15
##  6 Northpark_Villa        17
##  7 Bloomington_Heights    18
##  8 Meadow_Village         22
##  9 Briardale              23
## 10 Clear_Creek            26
## # ... with 18 more rows
```

---

### Categorical feature engineering

- Even numeric features can have similar distributions. For example, Screen_Porch has 92% values recorded as zero (zero square footage meaning no screen porch) and the remaining 8% have unique dispersed values.

```r
count(ames_train, Screen_Porch) %>% arrange(n)
```

```
## # A tibble: 95 x 2
##    Screen_Porch     n
##           <int> <int>
##  1           40     1
##  2           53     1
##  3           60     1
##  4           64     1
##  5           80     1
##  6           84     1
##  7           88     1
##  8           94     1
##  9           99     1
## 10          104     1
## # ... with 85 more rows
```
…
