…
```r
# arrange by share
data %>% 
  filter(response.type == "web") %>%
  group_by(response.from) %>% 
  summarise(Share = mean(response.share_count),
            Reach = mean(response.reach),
            Virality = mean(response.virality),
            LikeCount = mean(response.like_count),
            Comment = mean(response.comment_count)) %>%
  arrange(desc(Share)) # ARRANGE!
```

```
## # A tibble: 273 x 6
##    response.from             Share  Reach Virality LikeCount Comment
##    <chr>                     <dbl>  <dbl>    <dbl>     <dbl>   <dbl>
##  1 kgz.hr                   1750   129784  242.         869      88 
##  2 platak.hr                 563    10601    1           11       0 
##  3 logicno.com               117    15919    2.10       191      19 
##  4 geopolitika.news           99     7283    1.86       304     163 
##  5 ampeu.hr                   77     9297    0.800       40       0 
##  6 hkig.hr                    61     5141    6.00        21       1 
##  7 lisinski.hr                42     6895    2.40        44       5 
##  8 zagorje-international.hr   41     4515    1.11        26       6 
##  9 sloboda.hr                 39    69720    2.78       497     544 
## 10 priznajem.hr               34.2  24550    1.64       422.    153.
## # ... with 263 more rows
```
```r
# arrange by reach  
data %>% 
  filter(response.type == "web") %>%
  group_by(response.from) %>% 
  summarise(Reach = mean(response.reach),
            Share = mean(response.share_count),
            Virality = mean(response.virality),
            LikeCount = mean(response.like_count),
            Comment = mean(response.comment_count)) %>%
  arrange(desc(Reach)) # ARRANGE!
```

```
## # A tibble: 273 x 6
##    response.from   Reach  Share Virality LikeCount Comment
##    <chr>           <dbl>  <dbl>    <dbl>     <dbl>   <dbl>
##  1 kgz.hr        129784  1750   242.          869     88  
##  2 sloboda.hr     69720    39     2.78        497    544  
##  3 dw.com         41956    17     0.0438        2      1  
##  4 bongacams.com  40517     0     0             0      0  
##  5 priznajem.hr   24550    34.2   1.64        422.   153. 
##  6 index.hr       17231.   14.9   2.98        324.   139. 
##  7 logicno.com    15919   117     2.10        191     19  
##  8 jutarnji.hr    15493.   14.8   1.24        152.    53.5
##  9 24sata.hr      15168.   10.9   1.37        209.    79.4
## 10 zara.com       14313     0     0             0      0  
## # ... with 263 more rows
```

```r
# arrange by comment 
data %>% 
  filter(response.type == "web") %>%
  group_by(response.from) %>% 
  summarise(Comment = mean(response.comment_count)) %>%
  arrange(desc(Comment)) # ARRANGE!
```

```
## # A tibble: 273 x 2
##    response.from           Comment
##    <chr>                     <dbl>
##  1 sloboda.hr                544  
##  2 geopolitika.news          163  
##  3 priznajem.hr              153. 
##  4 index.hr                  139. 
##  5 morski.hr                 132. 
##  6 teleskop.hr               108  
##  7 novidani.com              105  
##  8 zagreb.info               103. 
##  9 kgz.hr                     88  
## 10 braniteljski-portal.com    83.3
## # ... with 263 more rows
```
…
